%YAML 1.1
%TAG !u! tag:unity3d.com,2011:
--- !u!114 &11400000
MonoBehaviour:
  m_ObjectHideFlags: 0
  m_CorrespondingSourceObject: {fileID: 0}
  m_PrefabInstance: {fileID: 0}
  m_PrefabAsset: {fileID: 0}
  m_GameObject: {fileID: 0}
  m_Enabled: 1
  m_EditorHideFlags: 0
  m_Script: {fileID: 11500000, guid: b45a4db25f1154c659e2dc69742de61d, type: 3}
  m_Name: Data_CarListMulti
  m_EditorClassIdentifier: 
  inventoryItem:
  - Cars:
    - {fileID: 1931106214302092, guid: a6607f306dec54f6dac686f0a1113d71, type: 3}
  - Cars:
    - {fileID: 1931106214302092, guid: a6607f306dec54f6dac686f0a1113d71, type: 3}
  - Cars:
    - {fileID: 1931106214302092, guid: a6607f306dec54f6dac686f0a1113d71, type: 3}
  - Cars:
    - {fileID: 1931106214302092, guid: a6607f306dec54f6dac686f0a1113d71, type: 3}
  - Cars:
    - {fileID: 1931106214302092, guid: a6607f306dec54f6dac686f0a1113d71, type: 3}
  - Cars:
    - {fileID: 1931106214302092, guid: a6607f306dec54f6dac686f0a1113d71, type: 3}
  - Cars:
    - {fileID: 1931106214302092, guid: a6607f306dec54f6dac686f0a1113d71, type: 3}
  - Cars:
    - {fileID: 1931106214302092, guid: a6607f306dec54f6dac686f0a1113d71, type: 3}
  b_mobile: 0
  mobileMaxSpeedOffset: -0.15
  mobileWheelStearingOffsetReactivity: -1.7
  b_Countdown: 1
  b_LapCounter: 1
